2 3
2 4
2 6
2 5
2 1
2 6
2 1
2 6
2 0
2 0
2 0
2 3
2 4
2 0
2 2
2 4
2 7
2 2
2 2
2 0
2 5
2 5
2 4
2 2
2 2
2 7
2 4
2 4
2 7
2 3
2 3
2 3
2 1
2 0
2 7
2 2
2 5
2 2
2 1
2 3
2 5
2 4
2 3
2 3
2 6
2 0
2 5
2 1
2 6
2 3
2 0
2 0
2 0
2 2
2 7
2 6
2 6
2 1
2 0
2 4
2 0
2 7
2 1
2 0
2 7
2 2
2 2
2 6
2 6
2 7
2 6
2 2
2 1
2 6
2 0
2 3
2 6
2 2
2 7
2 0
2 2
2 5
2 1
2 4
2 1
2 6
2 7
2 7
2 0
2 7
2 4
2 5
2 4
2 3
2 5
2 7
2 1
2 5
2 3
2 2
2 1
2 3
2 4
2 4
2 4
2 3
2 2
2 3
2 0
2 4
2 1
2 3
2 2
2 3
2 1
2 6
2 6
2 6
2 6
2 3
2 4
2 6
2 3
2 3
2 5
2 4
2 7
2 5
2 2
2 2
2 0
2 4
2 0
2 5
2 6
2 5
2 0
2 1
2 6
2 1
2 2
2 1
2 0
2 7
2 2
2 3
2 0
2 7
2 2
2 5
2 7
2 0
2 6
2 3
2 5
2 1
2 6
2 2
2 6
2 2
2 1
2 5
2 1
2 0
2 5
2 3
2 0
2 7
2 0
2 6
2 0
2 3
2 6
2 7
2 4
2 1
2 4
2 0
2 1
2 0
2 3
2 1
2 2
2 2
2 3
2 2
2 2
2 6
2 4
2 5
2 6
2 2
2 5
2 7
2 5
2 7
2 6
2 2
2 6
2 5
2 3
2 5
2 1
2 7
2 5
2 5
2 3
2 6
2 3
2 0
2 5
2 4
2 3
2 3
2 6
2 4
2 2
2 6
2 5
2 2
2 6
2 3
2 0
2 4
2 0
2 7
2 4
2 4
2 4
2 6
2 3
2 2
2 5
2 4
2 6
2 6
2 6
2 7
2 5
2 4
2 6
2 5
2 2
2 2
2 4
2 0
2 7
2 3
2 1
2 2
2 4
2 0
2 4
2 7
2 1
2 6
2 5
2 5
2 0
2 7
2 7
2 5
2 7
2 0
2 6
2 4
2 2
2 6
2 7
2 4
2 0
2 2
2 4
2 6
2 0
2 6
2 6
2 2
2 3
2 1
2 2
2 6
2 5
2 3
2 3
2 6
2 0
2 2
2 6
2 6
2 1
2 5
2 5
2 5
2 4
2 0
2 2
2 5
2 0
2 7
2 0
2 4
2 5
2 1
2 0
2 2
2 1
2 7
2 4
2 5
2 0
2 0
2 3
2 7
2 7
2 5
2 1
2 1
2 4
2 7
2 0
2 2
2 5
2 4
2 5
2 3
2 0
2 0
2 0
2 2
2 7
2 1
2 1
2 7
2 6
2 5
2 7
2 6
2 6
2 3
2 1
2 6
2 7
2 3
2 3
2 6
2 4
2 7
2 2
2 4
2 5
2 7
2 1
2 0
2 3
2 7
2 6
2 0
2 1
2 5
2 2
2 3
2 5
2 3
2 4
2 5
2 7
2 0
2 7
2 1
2 6
2 2
2 4
2 7
2 7
2 2
2 1
2 5
2 0
2 5
2 6
2 6
2 0
2 4
2 5
2 1
2 3
2 4
2 3
2 7
2 0
2 1
2 0
2 7
2 5
2 0
2 0
2 2
2 0
2 5
2 2
2 7
2 7
2 7
2 2
2 6
2 5
2 6
2 2
2 5
2 0
2 7
2 0
2 7
2 1
2 5
2 4
2 5
2 1
2 4
2 4
2 5
2 4
2 1
2 3
2 3
2 3
2 5
2 2
2 7
2 2
2 2
2 4
2 5
2 2
2 7
2 6
2 2
2 1
2 6
2 6
2 1
2 4
2 5
2 3
2 6
2 3
2 6
2 3
2 6
2 5
2 7
2 3
2 2
2 2
2 1
2 4
2 6
2 5
2 0
2 4
2 2
2 1
2 2
2 7
2 6
2 1
2 6
2 0
2 6
2 4
2 4
2 1
2 0
2 0
2 7
2 7
2 7
2 1
2 5
2 4
2 3
2 0
2 1
2 6
2 7
2 3
2 7
2 1
2 0
2 5
2 2
2 7
2 0
2 6
2 3
2 0
2 4
2 4
2 1
2 5
2 7
2 2
2 2
2 7
2 1
2 4
2 0
2 3
2 6
2 6
2 3
2 2
2 2
2 5
2 4
2 5
2 6
2 7
2 5
2 5
2 7
2 7
2 1
2 2
2 1
2 1
2 0
2 4
2 5
2 3
2 3
2 1
2 1
2 6
2 4
2 6
2 7
2 3
2 1
2 5
2 7
2 4
2 4
2 7
2 3
2 3
2 2
2 1
2 2
2 4
2 4
2 5
2 2
2 6
2 7
2 3
2 6
2 3
2 4
2 6
2 0
2 3
2 1
2 1
2 1
2 6
2 2
2 2
2 7
2 6
2 4
2 6
2 6
2 1
2 3
2 6
2 4
2 3
2 4
2 2
2 4
2 1
2 5
2 7
2 0
2 7
2 4
2 2
2 5
2 5
2 4
2 5
2 6
2 0
2 1
2 0
2 4
2 4
2 6
2 7
2 5
2 7
2 7
2 4
2 1
2 7
2 4
2 2
2 6
2 0
2 6
2 0
2 1
2 0
2 5
2 4
2 3
2 0
2 2
2 3
2 5
2 4
2 0
2 2
2 3
2 7
2 5
2 0
2 6
2 6
2 4
2 6
2 6
2 6
2 5
2 2
2 2
2 0
2 1
2 5
2 1
2 6
2 7
2 3
2 4
2 4
2 4
2 0
2 0
2 3
2 3
2 3
2 1
2 6
2 1
2 3
2 3
2 1
2 7
2 6
2 2
2 7
2 7
2 3
2 3
2 1
2 5
2 3
2 5
2 7
2 1
2 0
2 4
2 6
2 3
2 6
2 2
2 0
2 2
2 3
2 3
2 6
2 3
2 5
2 2
2 0
2 4
2 3
2 5
2 3
2 2
2 7
2 0
2 0
2 7
2 0
2 0
2 6
2 0
2 2
2 5
2 7
2 1
2 7
2 0
2 0
2 3
2 4
2 3
2 6
2 0
2 1
2 5
2 2
2 2
2 2
2 7
2 0
2 0
2 5
2 0
2 4
2 2
2 5
2 7
2 5
2 6
2 6
2 1
2 3
2 7
2 0
2 4
2 7
2 4
2 1
2 5
2 3
2 3
2 2
2 0
2 3
2 1
2 5
2 2
2 4
2 2
2 7
2 2
2 0
2 4
2 3
2 6
2 7
2 2
2 7
2 0
2 7
2 1
2 6
2 0
2 4
2 5
2 2
2 1
2 7
2 1
2 5
2 4
2 4
2 0
2 5
2 2
2 1
2 6
2 7
2 1
2 1
2 5
2 2
2 0
2 1
2 2
2 1
2 2
2 2
2 6
2 6
2 2
2 2
2 6
2 7
2 6
2 6
2 5
2 6
2 3
2 5
2 0
2 4
2 1
2 0
2 4
2 0
2 1
2 3
2 7
2 7
2 0
2 2
2 1
2 7
2 4
2 1
2 3
2 1
2 3
2 5
2 3
2 3
2 1
2 5
2 0
2 7
2 2
2 4
2 4
2 3
2 2
2 4
2 6
2 5
2 2
2 3
2 2
2 6
2 1
2 1
2 3
2 3
2 6
2 3
2 5
2 2
2 2
2 4
2 3
2 4
2 6
2 6
2 0
2 0
2 3
2 0
2 1
2 1
2 6
2 5
2 2
2 3
2 7
2 4
2 2
2 7
2 3
2 7
2 4
2 7
2 6
2 1
2 7
2 1
2 7
2 3
2 4
2 7
2 1
2 1
2 5
2 0
2 7
2 6
2 7
2 6
2 7
2 2
2 0
2 4
2 4
2 6
2 4
2 6
2 5
2 3
2 6
2 4
2 4
2 2
2 4
2 4
2 5
2 0
2 3
2 6
2 5
2 3
2 0
2 1
2 7
2 2
2 3
2 0
2 7
2 5
2 5
2 5
2 7
2 5
2 4
2 2
2 6
2 3
2 4
2 6
2 2
2 7
2 6
2 6
2 7
2 6
2 1
2 0
2 3
2 1
2 7
2 2
2 1
2 4
2 3
2 6
2 6
2 4
2 5
2 2
2 3
2 3
2 2
2 7
2 7
2 4
2 5
2 3
2 7
2 7
2 6
2 5
2 3
2 1
2 6
2 4
2 5
2 4
2 5
2 3
2 7
2 6
2 2
2 4
2 0
2 2
2 6
2 1
2 1
2 6
2 0
2 6
2 6
2 6
2 1
2 4
2 5
2 1
2 0
2 5
2 5
2 2
2 4
2 3
2 5
2 6
2 4
2 5
2 1
2 0
2 2
2 3
2 5
2 7
2 1
2 3
2 5
2 2
2 6
2 2
2 2
2 6
2 1
2 4
2 5
2 6
2 0
2 5
2 6
2 3
2 6
2 6
2 6
2 5
2 5
2 3
2 6
2 5
2 7
